Project Statisfactory
…
Age and shot/shot tasered (female)

dataset_4 <- police_shootings |>
  filter(Person.Gender == "Female",
         Shooting.Manner == "shot and Tasered" | 
         Shooting.Manner == "shot") |>
  mutate(Shooting.Manner = as.factor(Shooting.Manner),
         Shooting.Manner_binary = if_else(Shooting.Manner == "shot and Tasered", 1, 0))

dataset_4

# A tibble: 290 × 17
   Person.N…¹ Perso…² Perso…³ Perso…⁴ Incid…⁵ Incid…⁶ Incid…⁷ Incident…⁸ Incid…⁹
   <chr>        <dbl> <chr>   <chr>     <dbl>   <dbl>   <dbl> <date>     <chr>  
 1 Autumn St…      34 Female  White         1       6    2015 2015-01-06 Burlin…
 2 Kristiana…      17 Female  White         1      22    2015 2015-01-22 Longvi…
 3 Jessie He…      17 Female  Hispan…       1      26    2015 2015-01-26 Denver 
 4 Tiffany T…      39 Female  White         1      27    2015 2015-01-27 Omaha  
 5 Yuvette H…      38 Female  Africa…       2       3    2015 2015-02-03 Emeryv…
 6 Betty Sex…      43 Female  White         2      17    2015 2015-02-17 Gaston…
 7 Janisha F…      20 Female  Africa…       2      18    2015 2015-02-18 Charlo…
 8 Crystal L…      34 Female  White         2      26    2015 2015-02-26 Sylves…
 9 Jessica U…      28 Female  Hispan…       2      28    2015 2015-02-28 Tucson 
10 Stephanie…      37 Female  White         2      28    2015 2015-02-28 La Paz…
# … with 280 more rows, 8 more variables: Incident.Location.State <chr>,
#   Factors.Armed <chr>, `Factors.Mental-Illness` <lgl>,
#   `Factors.Threat-Level` <chr>, Factors.Fleeing <chr>, Shooting.Manner <fct>,
#   `Shooting.Body-Camera` <lgl>, Shooting.Manner_binary <dbl>, and abbreviated
#   variable names ¹​Person.Name, ²​Person.Age, ³​Person.Gender, ⁴​Person.Race,
#   ⁵​Incident.Date.Month, ⁶​Incident.Date.Day, ⁷​Incident.Date.Year,
#   ⁸​Incident.Date.Full, ⁹​Incident.Location.City
…
